module github.com/baeloft/go-fiber-test

go 1.22.2

require (
	github.com/andybalholm/brotli v1.1.0 // indirect
	github.com/gofiber/fiber/v2 v2.52.4 // indirect
	github.com/gofiber/jwt/v2 v2.2.7 // indirect
	github.com/gofiber/template v1.8.3 // indirect
	github.com/gofiber/template/html/v2 v2.1.1 // indirect
	github.com/gofiber/utils v1.1.0 // indirect
	github.com/golang-jwt/jwt/v4 v4.5.0 // indirect
	github.com/google/uuid v1.6.0 // indirect
	github.com/joho/godotenv v1.5.1 // indirect
	github.com/klauspost/compress v1.17.8 // indirect
	github.com/mattn/go-colorable v0.1.13 // indirect
	github.com/mattn/go-isatty v0.0.20 // indirect
	github.com/mattn/go-runewidth v0.0.15 // indirect
	github.com/rivo/uniseg v0.4.7 // indirect
	github.com/valyala/bytebufferpool v1.0.0 // indirect
	github.com/valyala/fasthttp v1.52.0 // indirect
	github.com/valyala/tcplisten v1.0.0 // indirect
	golang.org/x/sys v0.19.0 // indirect
)
